{
	"com.badlogic.gdx.graphics.Color": {
		"green": { "a": 1, "b": 0, "g": 1, "r": 0 },
		"white": { "a": 1, "b": 1, "g": 1, "r": 1 },
		"red": { "a": 1, "b": 0, "g": 0, "r": 1 },
		"black": { "a": 1, "b": 0, "g": 0, "r": 0 },
		"gold": {"a": 1, "b": 0, "g": 0.8, "r": 1}
	},
	"com.badlogic.gdx.graphics.g2d.BitmapFont": {
		"default-font": { "file": "images/font.fnt" },
		"arial-font": { "file": "images/arial-15.fnt" }
	},
	"com.badlogic.gdx.scenes.scene2d.ui.Label$LabelStyle": {
		"default": { "font": "arial-font", "fontColor": "green" }
	},
	com.badlogic.gdx.scenes.scene2d.ui.Slider$SliderStyle: {
		default-horizontal: { background: slideBar, knob: fisch }
	},
	com.badlogic.gdx.scenes.scene2d.ui.CheckBox$CheckBoxStyle: {
		default: { checkboxOn: checkboxon, checkboxOff: checkbox, font: default-font}
	},
	com.badlogic.gdx.scenes.scene2d.ui.Window$WindowStyle: {
		default: { titleFont: default-font, background: defaultWindow, titleFontColor: gold }

	},
	com.badlogic.gdx.scenes.scene2d.ui.TextField$TextFieldStyle: {
		default: {background: textField, font: default-font, fontColor: green }
	},

	"com.badlogic.gdx.scenes.scene2d.ui.TextButton$TextButtonStyle": {
		"default": {
			"down": "ok-dn",
			"up": "ok",
			"font": "default-font",
			"fontColor": "gold"
		}
	}
}