{

"com.badlogic.gdx.scenes.scene2d.ui.Button$ButtonStyle": {
	"newgame": { "down": "newGame-dn", "up": "newGame" },
	"load": {
		"down": "loadGame-dn", "up": "loadGame"
	},
	"exit": {
		"down": "exitGame-dn", "up": "exitGame"
	},
	"scores": {
		"down": "scores-dn", "up": "scores"
	},
	"impressum": {
		"down": "impressum-dn", "up": "impressum"
	},
	"information": {
		"down": "Information-dn", "up": "Information"
	},
	"options": { "down": "optionen-dn", "up": "optionen" },
	"menuscreen": {
		"down": "menuScreen-dn", "up": "menuScreen"
	},
	"continue": {
		"down": "continue-dn", "up": "continue"
	},
	"restart":{
		"down": "restartGame-dn", "up": "restartGame"
	},
	"loadplayer": {
		"down": "loadPlayer-dn", "up": "loadPlayer"
	},
	"newplayer": {
		"down": "newPlayer-dn", "up": "newPlayer"
	}

},
	"com.badlogic.gdx.graphics.Color": {
		"green": { "a": 1, "b": 0, "g": 1, "r": 0 },
		"white": { "a": 1, "b": 1, "g": 1, "r": 1 },
		"red": { "a": 1, "b": 0, "g": 0, "r": 1 },
		"black": { "a": 1, "b": 0, "g": 0, "r": 0 },
		"gold": {"a": 1, "b": 0, "g": 0.8, "r": 1}
	},
	"com.badlogic.gdx.graphics.g2d.BitmapFont": {
		"default-font": { "file": "images/font.fnt" },
		"arial-font": { "file": "images/arial-15.fnt" }
	},
	"com.badlogic.gdx.scenes.scene2d.ui.Label$LabelStyle": {
		"default": { "font": "arial-font", "fontColor": "green" }
	},

	"com.badlogic.gdx.scenes.scene2d.ui.TextButton$TextButtonStyle": {
		"default": {
			"down": "ok-dn",
			"up": "ok",
			"font": "default-font",
			"fontColor": "gold"
		}
	}
}
